tc.vcd
$date
	Thu Feb 19 17:39:18 2015
$end

$version
	Synopsys VCS version I-2014.03-2
$end

$timescale
	10ps
$end

$comment Csum: 1 2737aeaeec48d866 $end


$scope module top $end
$var reg 1 ! debug $end
$var reg 1 " test1_running $end
$var reg 1 # test2_running $end
$var reg 1 $ test3_running $end
$var reg 1 % test4_running $end
$var reg 1 & test5_running $end
$var reg 32 ' death [31:0] $end
$var reg 8 ( A_tccra [7:0] $end
$var reg 8 ) A_tccra1 [7:0] $end
$var reg 8 * A_tccrb [7:0] $end
$var reg 8 + A_tccrb1 [7:0] $end
$var reg 8 , A_ocra [7:0] $end
$var reg 8 - A_ocra1 [7:0] $end
$var reg 8 . A_ocrb [7:0] $end
$var reg 8 / A_ocrb1 [7:0] $end
$var reg 8 0 A_tcnt [7:0] $end
$var reg 8 1 A_tcnt1 [7:0] $end
$var reg 8 2 A_timsk [7:0] $end
$var reg 8 3 A_tifr [7:0] $end
$var reg 8 4 A_tifr1 [7:0] $end
$var reg 32 5 div [31:0] $end

$scope task die $end
$upscope $end


$scope task wreg $end
$var reg 8 6 addr [7:0] $end
$var reg 8 7 datax [7:0] $end
$upscope $end


$scope task rreg $end
$var reg 8 8 addr [7:0] $end
$var reg 8 9 datax [7:0] $end
$upscope $end


$scope task easyplay $end
$upscope $end


$scope task test1 $end
$upscope $end


$scope task test2 $end
$upscope $end


$scope task test3 $end
$upscope $end


$scope task test4 $end
$upscope $end


$scope task test5 $end
$upscope $end


$scope task _$$txp_fail_action_unnamed$$_8 $end
$upscope $end


$scope task _$$txp_fail_action_unnamed$$_9 $end
$upscope $end


$scope task _$$txp_fail_action_unnamed$$_10 $end
$upscope $end


$scope task _$$txp_fail_action_unnamed$$_11 $end
$upscope $end


$scope task _$$txp_fail_action_unnamed$$_12 $end
$upscope $end


$scope task _$$txp_fail_action_unnamed$$_13 $end
$upscope $end


$scope task _$$txp_fail_action_unnamed$$_14 $end
$upscope $end


$scope task _$$txp_fail_action_unnamed$$_15 $end
$upscope $end


$scope task _$$txp_fail_action_unnamed$$_16 $end
$upscope $end


$scope task _$$txp_fail_action_unnamed$$_17 $end
$upscope $end


$scope task _$$txp_fail_action_unnamed$$_18 $end
$upscope $end


$scope task _$$txp_fail_action_unnamed$$_19 $end
$upscope $end


$scope task _$$txp_fail_action_unnamed$$_20 $end
$upscope $end


$scope task _$$txp_fail_action_unnamed$$_21 $end
$upscope $end


$scope task _$$txp_fail_action_unnamed$$_22 $end
$upscope $end


$scope task _$$txp_fail_action_unnamed$$_23 $end
$upscope $end


$scope task _$$txp_fail_action_unnamed$$_24 $end
$upscope $end


$scope task _$$txp_fail_action_unnamed$$_25 $end
$upscope $end


$scope task _$$txp_fail_action_unnamed$$_26 $end
$upscope $end


$scope task _$$txp_fail_action_unnamed$$_27 $end
$upscope $end


$scope task _$$txp_fail_action_unnamed$$_28 $end
$upscope $end


$scope task _$$txp_fail_action_unnamed$$_29 $end
$upscope $end


$scope task _$$txp_fail_action_unnamed$$_30 $end
$upscope $end


$scope task _$$txp_fail_action_unnamed$$_31 $end
$upscope $end


$scope task _$$txp_fail_action_unnamed$$_32 $end
$upscope $end


$scope task _$$txp_fail_action_unnamed$$_33 $end
$upscope $end


$scope module ai $end
$var reg 1 : clk $end
$var reg 1 ; rst $end
$var reg 1 < write $end
$var reg 8 = addr [7:0] $end
$var reg 8 > wdata [7:0] $end
$var reg 1 ? read $end
$var reg 8 @ rdata [7:0] $end
$var reg 1 A t0 $end
$var reg 1 B interrupt_request $end
$var reg 1 C status_reg_interrupt_enable $end
$var reg 1 D interrupt_executed $end
$var reg 1 E oca_data $end
$var reg 1 F ocb_data $end
$upscope $end


$scope module t $end
$var reg 8 G A_tccra [7:0] $end
$var reg 8 H A_tccra1 [7:0] $end
$var reg 8 I A_tccrb [7:0] $end
$var reg 8 J A_tccrb1 [7:0] $end
$var reg 8 K A_ocra [7:0] $end
$var reg 8 L A_ocra1 [7:0] $end
$var reg 8 M A_ocrb [7:0] $end
$var reg 8 N A_ocrb1 [7:0] $end
$var reg 8 O A_tcnt [7:0] $end
$var reg 8 P A_tcnt1 [7:0] $end
$var reg 8 Q A_timsk [7:0] $end
$var reg 8 R A_tifr [7:0] $end
$var reg 8 S A_tifr1 [7:0] $end
$var reg 8 T tccra [7:0] $end
$var reg 8 U tccra1 [7:0] $end
$var reg 8 V tccrb [7:0] $end
$var reg 8 W tccrb1 [7:0] $end
$var reg 8 X ocra [7:0] $end
$var reg 8 Y ocra1 [7:0] $end
$var reg 8 Z ocrb [7:0] $end
$var reg 8 [ ocrb1 [7:0] $end
$var reg 8 \ tcnt [7:0] $end
$var reg 8 ] tcnt1 [7:0] $end
$var reg 8 ^ timsk [7:0] $end
$var reg 8 _ tifr [7:0] $end
$var reg 8 ` tifr1 [7:0] $end
$var reg 8 a rdata [7:0] $end
$var reg 8 b rdata_tmp [7:0] $end
$var reg 1 c clk8 $end
$var reg 1 d clk64 $end
$var reg 1 e clk256 $end
$var reg 1 f clk1024 $end
$var reg 1 g sysclk $end
$var reg 3 h f_cnt8 [2:0] $end
$var reg 6 i f_cnt64 [5:0] $end
$var reg 8 j f_cnt256 [7:0] $end
$var reg 10 k f_cnt1024 [9:0] $end
$upscope $end

$upscope $end

$enddefinitions $end

#0
$dumpvars
xf
xe
xd
xc
1!
xg
0"
0#
0$
0%
0&
b00100111 ,
b01000111 -
b00101000 .
b01001000 /
b00100100 (
b01000100 )
b00100101 *
b01000101 +
b00100110 0
b01000110 1
b00010101 3
b00110101 4
b01101110 2
bxxxxxxxxxx k
bxxxxxxxx j
bxxxxxx i
bxxx h
bxxxxxxxx X
bxxxxxxxx Y
bxxxxxxxx Z
bxxxxxxxx [
bxxxxxxxx a
bxxxxxxxx b
bxxxxxxxx 8
bxxxxxxxx 9
b00100111 K
b01000111 L
b00101000 M
b01001000 N
b00100100 G
b01000100 H
b00100101 I
b01000101 J
b00100110 O
b01000110 P
b00010101 R
b00110101 S
b01101110 Q
bxxxxxxxx T
bxxxxxxxx U
bxxxxxxxx V
bxxxxxxxx W
bxxxxxxxx \
bxxxxxxxx ]
bxxxxxxxx _
bxxxxxxxx `
bxxxxxxxx ^
bxxxxxxxx 6
bxxxxxxxx 7
b00000000000000000000000000000000 '
b00000000000000000000000000001000 5
1D
1C
xB
xF
xE
xA
0?
0<
0;
0:
bxxxxxxxx @
b00110100 >
b00010010 =
$end
#500
1:
0B
0c
0d
0e
0f
#600
0D
1;
0g
b00000000 b
b00000000 @
b00000000 T
b00000000 U
b00000000 V
b00000000 W
b00000000 X
b00000000 Z
b00000000 [
b00000000 ^
b00000000 _
b00000000 `
b00000000 a
b000 h
b000000 i
b00000000 j
b0000000000 k
b00000000 \
b00000000 ]
#1000
0:
#1500
1:
#2000
0:
#2500
1:
#3000
0:
#3500
1:
#4000
0:
#4500
1:
#5000
0:
#5500
1:
#5600
0;
b00100111 6
b00000101 7
b00100111 =
b00000101 >
1<
#6000
0:
#6500
1:
b00000101 Y
b00000101 X
b001 h
b000001 i
b00000001 j
b0000000001 k
#6600
0<
b00000000 =
b00000000 >
b00101000 6
b01110111 7
b00101000 =
b01110111 >
1<
#7000
0:
#7500
1:
b01110111 Z
b01110111 [
b010 h
b000010 i
b00000010 j
b0000000010 k
#7600
0<
b00000000 =
b00000000 >
b00100100 6
b00000010 7
b00100100 =
b00000010 >
1<
#8000
0:
#8500
1:
b00000010 T
b00000010 U
b011 h
b000011 i
b00000011 j
b0000000011 k
#8600
0<
b00000000 =
b00000000 >
b00100101 6
b00100101 =
b00000010 >
1<
#9000
0:
#9500
1:
b00000010 V
b00000010 W
b100 h
b000100 i
b00000100 j
b0000000100 k
#9600
0<
b00000000 =
b00000000 >
b00010101 6
b00000111 7
b00010101 =
b00000111 >
1<
#10000
0:
#10500
1:
b101 h
b000101 i
b00000101 j
b0000000101 k
#10600
0<
b00000000 =
b00000000 >
b01101110 6
b01101110 =
b00000111 >
1<
#11000
0:
#11500
1:
b00000111 ^
b110 h
b000110 i
b00000110 j
b0000000110 k
#11600
0<
b00000000 =
b00000000 >
b00100111 8
b00000101 9
b00100111 =
1?
b00000101 b
b00000101 @
#12000
0:
#12500
1:
b111 h
b000111 i
b00000111 j
b0000000111 k
#12600
b00100100 8
b00000010 9
b00100100 =
b00000010 b
b00000010 @
#13000
0:
#13500
1:
b000 h
1c
b001000 i
b00001000 j
b0000001000 k
1g
b00000001 \
b00000001 ]
#13600
b00100101 8
b00100101 =
#14000
0:
#14500
1:
b001 h
0c
b001001 i
b00001001 j
b0000001001 k
0g
#14600
b01000111 8
b00000101 9
b01000111 =
b00000101 b
b00000101 @
#15000
0:
#15500
1:
b010 h
b001010 i
b00001010 j
b0000001010 k
#15600
b01000100 8
b00000010 9
b01000100 =
b00000010 b
b00000010 @
#16000
0:
#16500
1:
b011 h
b001011 i
b00001011 j
b0000001011 k
#16600
b01000101 8
b01000101 =
#17000
0:
#17500
1:
b100 h
b001100 i
b00001100 j
b0000001100 k
#17600
b00010101 8
b00000000 9
b00010101 =
b00000000 b
b00000000 @
#18000
0:
#18500
1:
b101 h
b001101 i
b00001101 j
b0000001101 k
#18600
b01101110 8
b00000111 9
b01101110 =
b00000111 b
b00000111 @
#19000
0:
#19500
1:
b110 h
b001110 i
b00001110 j
b0000001110 k
#19600
b00110101 8
b00000000 9
b00110101 =
b00000000 b
b00000000 @
#20000
0:
#20500
1:
b111 h
b001111 i
b00001111 j
b0000001111 k
#20600
b00101000 8
b01110111 9
b00101000 =
b01110111 b
b01110111 @
#21000
0:
#21500
1:
b000 h
1c
b010000 i
b00010000 j
b0000010000 k
1g
b00000010 \
b00000010 ]
#21600
b01001000 8
b01001000 =
#22000
0:
#22500
1:
b001 h
0c
b010001 i
b00010001 j
b0000010001 k
0g
#22600
b00100110 =
b00000010 b
b00000010 @
#23000
0:
#23500
1:
b010 h
b010010 i
b00010010 j
b0000010010 k
#24000
0:
#24500
1:
b011 h
b010011 i
b00010011 j
b0000010011 k
#25000
0:
#25500
1:
b100 h
b010100 i
b00010100 j
b0000010100 k
#26000
0:
#26500
1:
b101 h
b010101 i
b00010101 j
b0000010101 k
#27000
0:
#27500
1:
b110 h
b010110 i
b00010110 j
b0000010110 k
#28000
0:
#28500
1:
b111 h
b010111 i
b00010111 j
b0000010111 k
#29000
0:
#29500
1:
b000 h
1c
b011000 i
b00011000 j
b0000011000 k
1g
b00000011 \
b00000011 ]
b00000011 b
b00000011 @
#30000
0:
#30500
1:
b001 h
0c
b011001 i
b00011001 j
b0000011001 k
0g
#31000
0:
#31500
1:
b010 h
b011010 i
b00011010 j
b0000011010 k
#32000
0:
#32500
1:
b011 h
b011011 i
b00011011 j
b0000011011 k
#32600
1"
#33000
0:
#33500
1:
b100 h
b011100 i
b00011100 j
b0000011100 k
#34000
0:
#34500
1:
b101 h
b011101 i
b00011101 j
b0000011101 k
#35000
0:
#35500
1:
b110 h
b011110 i
b00011110 j
b0000011110 k
#36000
0:
#36500
1:
b111 h
b011111 i
b00011111 j
b0000011111 k
#37000
0:
#37500
1:
b000 h
1c
b100000 i
b00100000 j
b0000100000 k
1g
b00000100 \
b00000100 ]
b00000100 b
b00000100 @
#38000
0:
#38500
1:
b001 h
0c
b100001 i
b00100001 j
b0000100001 k
0g
#39000
0:
#39500
1:
b010 h
b100010 i
b00100010 j
b0000100010 k
#40000
0:
#40500
1:
b011 h
b100011 i
b00100011 j
b0000100011 k
#41000
0:
#41500
1:
b100 h
b100100 i
b00100100 j
b0000100100 k
#42000
0:
#42500
1:
b101 h
b100101 i
b00100101 j
b0000100101 k
#43000
0:
#43500
1:
b110 h
b100110 i
b00100110 j
b0000100110 k
#44000
0:
#44500
1:
b111 h
b100111 i
b00100111 j
b0000100111 k
#45000
0:
#45500
1:
b000 h
1c
b101000 i
b00101000 j
b0000101000 k
1g
b00000101 \
b00000101 ]
b00000101 b
b00000101 @
#46000
0:
#46500
1:
b001 h
0c
b101001 i
b00101001 j
b0000101001 k
0g
#47000
0:
#47500
1:
b010 h
b101010 i
b00101010 j
b0000101010 k
#48000
0:
#48500
1:
b011 h
b101011 i
b00101011 j
b0000101011 k
#49000
0:
#49500
1:
b100 h
b101100 i
b00101100 j
b0000101100 k
#50000
0:
#50500
1:
b101 h
b101101 i
b00101101 j
b0000101101 k
#51000
0:
#51500
1:
b110 h
b101110 i
b00101110 j
b0000101110 k
#52000
0:
#52500
1:
b111 h
b101111 i
b00101111 j
b0000101111 k
#53000
0:
#53500
1:
b000 h
1c
b110000 i
b00110000 j
b0000110000 k
1g
b00000000 \
b00000000 ]
b00000011 _
b00000011 `
1B
b00000000 b
b00000000 @
#54000
0:
#54500
1:
b001 h
0c
b110001 i
b00110001 j
b0000110001 k
0g
#55000
0:
#55500
1:
b010 h
b110010 i
b00110010 j
b0000110010 k
#56000
0:
#56500
1:
b011 h
b110011 i
b00110011 j
b0000110011 k
#57000
0:
#57500
1:
b100 h
b110100 i
b00110100 j
b0000110100 k
#58000
0:
#58500
1:
b101 h
b110101 i
b00110101 j
b0000110101 k
#58600
1D
#59000
0:
#59500
1:
0B
b110 h
b110110 i
b00110110 j
b0000110110 k
#60000
0:
#60500
1:
b111 h
b110111 i
b00110111 j
b0000110111 k
#61000
0:
#61500
1:
b000 h
1c
b111000 i
b00111000 j
b0000111000 k
1g
b00000001 \
b00000001 ]
b00000001 b
b00000001 @
#61600
0D
#62000
0:
#62500
1:
b001 h
0c
b111001 i
b00111001 j
b0000111001 k
0g
#63000
0:
#63500
1:
b010 h
b111010 i
b00111010 j
b0000111010 k
#64000
0:
#64500
1:
b011 h
b111011 i
b00111011 j
b0000111011 k
#65000
0:
#65500
1:
b100 h
b111100 i
b00111100 j
b0000111100 k
#66000
0:
#66500
1:
b101 h
b111101 i
b00111101 j
b0000111101 k
#67000
0:
#67500
1:
b110 h
b111110 i
b00111110 j
b0000111110 k
#68000
0:
#68500
1:
b111 h
b111111 i
b00111111 j
b0000111111 k
#69000
0:
#69500
1:
b000 h
1c
b000000 i
1d
b01000000 j
b0001000000 k
1f
1g
b00000010 \
b00000010 ]
b00000010 b
b00000010 @
#70000
0:
#70500
1:
b001 h
0c
b000001 i
0d
b01000001 j
b0001000001 k
0f
0g
#71000
0:
#71500
1:
b010 h
b000010 i
b01000010 j
b0001000010 k
#72000
0:
#72500
1:
b011 h
b000011 i
b01000011 j
b0001000011 k
#73000
0:
#73500
1:
b100 h
b000100 i
b01000100 j
b0001000100 k
#74000
0:
#74500
1:
b101 h
b000101 i
b01000101 j
b0001000101 k
#75000
0:
#75500
1:
b110 h
b000110 i
b01000110 j
b0001000110 k
#76000
0:
#76500
1:
b111 h
b000111 i
b01000111 j
b0001000111 k
#77000
0:
#77500
1:
b000 h
1c
b001000 i
b01001000 j
b0001001000 k
1g
b00000011 \
b00000011 ]
b00000011 b
b00000011 @
#78000
0:
#78500
1:
b001 h
0c
b001001 i
b01001001 j
b0001001001 k
0g
#79000
0:
#79500
1:
b010 h
b001010 i
b01001010 j
b0001001010 k
#80000
0:
#80500
1:
b011 h
b001011 i
b01001011 j
b0001001011 k
#81000
0:
#81500
1:
b100 h
b001100 i
b01001100 j
b0001001100 k
#82000
0:
#82500
1:
b101 h
b001101 i
b01001101 j
b0001001101 k
#83000
0:
#83500
1:
b110 h
b001110 i
b01001110 j
b0001001110 k
#84000
0:
#84500
1:
b111 h
b001111 i
b01001111 j
b0001001111 k
#85000
0:
#85500
1:
b000 h
1c
b010000 i
b01010000 j
b0001010000 k
1g
b00000100 \
b00000100 ]
b00000100 b
b00000100 @
#86000
0:
#86500
1:
b001 h
0c
b010001 i
b01010001 j
b0001010001 k
0g
#87000
0:
#87500
1:
b010 h
b010010 i
b01010010 j
b0001010010 k
#88000
0:
#88500
1:
b011 h
b010011 i
b01010011 j
b0001010011 k
#89000
0:
#89500
1:
b100 h
b010100 i
b01010100 j
b0001010100 k
#90000
0:
#90500
1:
b101 h
b010101 i
b01010101 j
b0001010101 k
#91000
0:
#91500
1:
b110 h
b010110 i
b01010110 j
b0001010110 k
#92000
0:
#92500
1:
b111 h
b010111 i
b01010111 j
b0001010111 k
#93000
0:
#93500
1:
b000 h
1c
b011000 i
b01011000 j
b0001011000 k
1g
b00000101 \
b00000101 ]
b00000101 b
b00000101 @
#94000
0:
#94500
1:
b001 h
0c
b011001 i
b01011001 j
b0001011001 k
0g
#95000
0:
#95500
1:
b010 h
b011010 i
b01011010 j
b0001011010 k
#96000
0:
#96500
1:
b011 h
b011011 i
b01011011 j
b0001011011 k
#97000
0:
#97500
1:
b100 h
b011100 i
b01011100 j
b0001011100 k
#98000
0:
#98500
1:
b101 h
b011101 i
b01011101 j
b0001011101 k
#99000
0:
#99500
1:
b110 h
b011110 i
b01011110 j
b0001011110 k
#100000
0:
#100500
1:
b111 h
b011111 i
b01011111 j
b0001011111 k
#101000
0:
#101500
1:
b000 h
1c
b100000 i
b01100000 j
b0001100000 k
1g
b00000000 \
b00000000 ]
1B
b00000000 b
b00000000 @
#102000
0:
#102500
1:
b001 h
0c
b100001 i
b01100001 j
b0001100001 k
0g
#103000
0:
#103500
1:
b010 h
b100010 i
b01100010 j
b0001100010 k
#103600
1D
#104000
0:
#104500
1:
0B
b011 h
b100011 i
b01100011 j
b0001100011 k
#105000
0:
#105500
1:
b100 h
b100100 i
b01100100 j
b0001100100 k
#106000
0:
#106500
1:
b101 h
b100101 i
b01100101 j
b0001100101 k
#107000
0:
#107500
1:
b110 h
b100110 i
b01100110 j
b0001100110 k
#108000
0:
#108500
1:
b111 h
b100111 i
b01100111 j
b0001100111 k
#108600
0D
#109000
0:
#109500
1:
b000 h
1c
b101000 i
b01101000 j
b0001101000 k
1g
b00000001 \
b00000001 ]
b00000001 b
b00000001 @
#110000
0:
#110500
1:
b001 h
0c
b101001 i
b01101001 j
b0001101001 k
0g
#111000
0:
#111500
1:
b010 h
b101010 i
b01101010 j
b0001101010 k
#112000
0:
#112500
1:
b011 h
b101011 i
b01101011 j
b0001101011 k
#113000
0:
#113500
1:
b100 h
b101100 i
b01101100 j
b0001101100 k
#114000
0:
#114500
1:
b101 h
b101101 i
b01101101 j
b0001101101 k
#115000
0:
#115500
1:
b110 h
b101110 i
b01101110 j
b0001101110 k
#116000
0:
#116500
1:
b111 h
b101111 i
b01101111 j
b0001101111 k
#117000
0:
#117500
1:
b000 h
1c
b110000 i
b01110000 j
b0001110000 k
1g
b00000010 \
b00000010 ]
b00000010 b
b00000010 @
#118000
0:
#118500
1:
b001 h
0c
b110001 i
b01110001 j
b0001110001 k
0g
#119000
0:
#119500
1:
b010 h
b110010 i
b01110010 j
b0001110010 k
#120000
0:
#120500
1:
b011 h
b110011 i
b01110011 j
b0001110011 k
#121000
0:
#121500
1:
b100 h
b110100 i
b01110100 j
b0001110100 k
#122000
0:
#122500
1:
b101 h
b110101 i
b01110101 j
b0001110101 k
#123000
0:
#123500
1:
b110 h
b110110 i
b01110110 j
b0001110110 k
#124000
0:
#124500
1:
b111 h
b110111 i
b01110111 j
b0001110111 k
#125000
0:
#125500
1:
b000 h
1c
b111000 i
b01111000 j
b0001111000 k
1g
b00000011 \
b00000011 ]
b00000011 b
b00000011 @
#126000
0:
#126500
1:
b001 h
0c
b111001 i
b01111001 j
b0001111001 k
0g
#127000
0:
#127500
1:
b010 h
b111010 i
b01111010 j
b0001111010 k
#128000
0:
#128500
1:
b011 h
b111011 i
b01111011 j
b0001111011 k
#129000
0:
#129500
1:
b100 h
b111100 i
b01111100 j
b0001111100 k
#130000
0:
#130500
1:
b101 h
b111101 i
b01111101 j
b0001111101 k
#131000
0:
#131500
1:
b110 h
b111110 i
b01111110 j
b0001111110 k
#132000
0:
#132500
1:
b111 h
b111111 i
b01111111 j
b0001111111 k
#133000
0:
#133500
1:
b000 h
1c
b000000 i
1d
b10000000 j
b0010000000 k
1g
b00000100 \
b00000100 ]
b00000100 b
b00000100 @
#134000
0:
#134500
1:
b001 h
0c
b000001 i
0d
b10000001 j
b0010000001 k
0g
#135000
0:
#135500
1:
b010 h
b000010 i
b10000010 j
b0010000010 k
#136000
0:
#136500
1:
b011 h
b000011 i
b10000011 j
b0010000011 k
#137000
0:
#137500
1:
b100 h
b000100 i
b10000100 j
b0010000100 k
#138000
0:
#138500
1:
b101 h
b000101 i
b10000101 j
b0010000101 k
#139000
0:
#139500
1:
b110 h
b000110 i
b10000110 j
b0010000110 k
#140000
0:
#140500
1:
b111 h
b000111 i
b10000111 j
b0010000111 k
#141000
0:
#141500
1:
b000 h
1c
b001000 i
b10001000 j
b0010001000 k
1g
b00000101 \
b00000101 ]
b00000101 b
b00000101 @
#142000
0:
#142500
1:
b001 h
0c
b001001 i
b10001001 j
b0010001001 k
0g
#143000
0:
#143500
1:
b010 h
b001010 i
b10001010 j
b0010001010 k
#144000
0:
#144500
1:
b011 h
b001011 i
b10001011 j
b0010001011 k
#145000
0:
#145500
1:
b100 h
b001100 i
b10001100 j
b0010001100 k
#146000
0:
#146500
1:
b101 h
b001101 i
b10001101 j
b0010001101 k
#147000
0:
#147500
1:
b110 h
b001110 i
b10001110 j
b0010001110 k
#148000
0:
#148500
1:
b111 h
b001111 i
b10001111 j
b0010001111 k
#149000
0:
#149500
1:
b000 h
1c
b010000 i
b10010000 j
b0010010000 k
1g
b00000000 \
b00000000 ]
1B
b00000000 b
b00000000 @
#150000
0:
#150500
1:
b001 h
0c
b010001 i
b10010001 j
b0010010001 k
0g
#151000
0:
#151500
1:
b010 h
b010010 i
b10010010 j
b0010010010 k
#152000
0:
#152500
1:
b011 h
b010011 i
b10010011 j
b0010010011 k
#153000
0:
#153500
1:
b100 h
b010100 i
b10010100 j
b0010010100 k
#154000
0:
#154500
1:
b101 h
b010101 i
b10010101 j
b0010010101 k
#155000
0:
#155500
1:
b110 h
b010110 i
b10010110 j
b0010010110 k
#155600
1D
#156000
0:
#156500
1:
0B
b111 h
b010111 i
b10010111 j
b0010010111 k
#157000
0:
#157500
1:
b000 h
1c
b011000 i
b10011000 j
b0010011000 k
1g
b00000001 \
b00000001 ]
b00000001 b
b00000001 @
#158000
0:
#158500
1:
b001 h
0c
b011001 i
b10011001 j
b0010011001 k
0g
#159000
0:
#159500
1:
b010 h
b011010 i
b10011010 j
b0010011010 k
#160000
0:
#160500
1:
b011 h
b011011 i
b10011011 j
b0010011011 k
#161000
0:
#161500
1:
b100 h
b011100 i
b10011100 j
b0010011100 k
#162000
0:
#162500
1:
b101 h
b011101 i
b10011101 j
b0010011101 k
#162600
0D
#163000
0:
#163500
1:
b110 h
b011110 i
b10011110 j
b0010011110 k
#164000
0:
#164500
1:
b111 h
b011111 i
b10011111 j
b0010011111 k
#165000
0:
#165500
1:
b000 h
1c
b100000 i
b10100000 j
b0010100000 k
1g
b00000010 \
b00000010 ]
b00000010 b
b00000010 @
#166000
0:
#166500
1:
b001 h
0c
b100001 i
b10100001 j
b0010100001 k
0g
#167000
0:
#167500
1:
b010 h
b100010 i
b10100010 j
b0010100010 k
#168000
0:
#168500
1:
b011 h
b100011 i
b10100011 j
b0010100011 k
#169000
0:
#169500
1:
b100 h
b100100 i
b10100100 j
b0010100100 k
#170000
0:
#170500
1:
b101 h
b100101 i
b10100101 j
b0010100101 k
#171000
0:
#171500
1:
b110 h
b100110 i
b10100110 j
b0010100110 k
#172000
0:
#172500
1:
b111 h
b100111 i
b10100111 j
b0010100111 k
#173000
0:
#173500
1:
b000 h
1c
b101000 i
b10101000 j
b0010101000 k
1g
b00000011 \
b00000011 ]
b00000011 b
b00000011 @
#174000
0:
#174500
1:
b001 h
0c
b101001 i
b10101001 j
b0010101001 k
0g
#175000
0:
#175500
1:
b010 h
b101010 i
b10101010 j
b0010101010 k
#176000
0:
#176500
1:
b011 h
b101011 i
b10101011 j
b0010101011 k
#177000
0:
#177500
1:
b100 h
b101100 i
b10101100 j
b0010101100 k
#178000
0:
#178500
1:
b101 h
b101101 i
b10101101 j
b0010101101 k
#179000
0:
#179500
1:
b110 h
b101110 i
b10101110 j
b0010101110 k
#180000
0:
#180500
1:
b111 h
b101111 i
b10101111 j
b0010101111 k
#181000
0:
#181500
1:
b000 h
1c
b110000 i
b10110000 j
b0010110000 k
1g
b00000100 \
b00000100 ]
b00000100 b
b00000100 @
#182000
0:
#182500
1:
b001 h
0c
b110001 i
b10110001 j
b0010110001 k
0g
#183000
0:
#183500
1:
b010 h
b110010 i
b10110010 j
b0010110010 k
#184000
0:
#184500
1:
b011 h
b110011 i
b10110011 j
b0010110011 k
#185000
0:
#185500
1:
b100 h
b110100 i
b10110100 j
b0010110100 k
#186000
0:
#186500
1:
b101 h
b110101 i
b10110101 j
b0010110101 k
#187000
0:
#187500
1:
b110 h
b110110 i
b10110110 j
b0010110110 k
#188000
0:
#188500
1:
b111 h
b110111 i
b10110111 j
b0010110111 k
#189000
0:
#189500
1:
b000 h
1c
b111000 i
b10111000 j
b0010111000 k
1g
b00000101 \
b00000101 ]
b00000101 b
b00000101 @
#190000
0:
#190500
1:
b001 h
0c
b111001 i
b10111001 j
b0010111001 k
0g
#191000
0:
#191500
1:
b010 h
b111010 i
b10111010 j
b0010111010 k
#192000
0:
#192500
1:
b011 h
b111011 i
b10111011 j
b0010111011 k
#193000
0:
#193500
1:
b100 h
b111100 i
b10111100 j
b0010111100 k
#194000
0:
#194500
1:
b101 h
b111101 i
b10111101 j
b0010111101 k
#195000
0:
#195500
1:
b110 h
b111110 i
b10111110 j
b0010111110 k
#196000
0:
#196500
1:
b111 h
b111111 i
b10111111 j
b0010111111 k
#197000
0:
#197500
1:
b000 h
1c
b000000 i
1d
b11000000 j
b0011000000 k
1g
b00000000 \
b00000000 ]
1B
b00000000 b
b00000000 @
#198000
0:
#198500
1:
b001 h
0c
b000001 i
0d
b11000001 j
b0011000001 k
0g
#199000
0:
#199500
1:
b010 h
b000010 i
b11000010 j
b0011000010 k
#200000
0:
#200500
1:
b011 h
b000011 i
b11000011 j
b0011000011 k
#201000
0:
#201500
1:
b100 h
b000100 i
b11000100 j
b0011000100 k
#202000
0:
#202500
1:
b101 h
b000101 i
b11000101 j
b0011000101 k
#203000
0:
#203500
1:
b110 h
b000110 i
b11000110 j
b0011000110 k
#203600
1D
#204000
0:
#204500
1:
0B
b111 h
b000111 i
b11000111 j
b0011000111 k
#205000
0:
#205500
1:
b000 h
1c
b001000 i
b11001000 j
b0011001000 k
1g
b00000001 \
b00000001 ]
b00000001 b
b00000001 @
#206000
0:
#206500
1:
b001 h
0c
b001001 i
b11001001 j
b0011001001 k
0g
#207000
0:
#207500
1:
b010 h
b001010 i
b11001010 j
b0011001010 k
#207600
0D
#208000
0:
#208500
1:
b011 h
b001011 i
b11001011 j
b0011001011 k
#209000
0:
#209500
1:
b100 h
b001100 i
b11001100 j
b0011001100 k
#210000
0:
#210500
1:
b101 h
b001101 i
b11001101 j
b0011001101 k
#211000
0:
#211500
1:
b110 h
b001110 i
b11001110 j
b0011001110 k
#212000
0:
#212500
1:
b111 h
b001111 i
b11001111 j
b0011001111 k
#213000
0:
#213500
1:
b000 h
1c
b010000 i
b11010000 j
b0011010000 k
1g
b00000010 \
b00000010 ]
b00000010 b
b00000010 @
#214000
0:
#214500
1:
b001 h
0c
b010001 i
b11010001 j
b0011010001 k
0g
#215000
0:
#215500
1:
b010 h
b010010 i
b11010010 j
b0011010010 k
#216000
0:
#216500
1:
b011 h
b010011 i
b11010011 j
b0011010011 k
#217000
0:
#217500
1:
b100 h
b010100 i
b11010100 j
b0011010100 k
#218000
0:
#218500
1:
b101 h
b010101 i
b11010101 j
b0011010101 k
#219000
0:
#219500
1:
b110 h
b010110 i
b11010110 j
b0011010110 k
#220000
0:
#220500
1:
b111 h
b010111 i
b11010111 j
b0011010111 k
#221000
0:
#221500
1:
b000 h
1c
b011000 i
b11011000 j
b0011011000 k
1g
b00000011 \
b00000011 ]
b00000011 b
b00000011 @
#222000
0:
#222500
1:
b001 h
0c
b011001 i
b11011001 j
b0011011001 k
0g
#223000
0:
#223500
1:
b010 h
b011010 i
b11011010 j
b0011011010 k
#224000
0:
#224500
1:
b011 h
b011011 i
b11011011 j
b0011011011 k
#225000
0:
#225500
1:
b100 h
b011100 i
b11011100 j
b0011011100 k
#226000
0:
#226500
1:
b101 h
b011101 i
b11011101 j
b0011011101 k
#227000
0:
#227500
1:
b110 h
b011110 i
b11011110 j
b0011011110 k
#228000
0:
#228500
1:
b111 h
b011111 i
b11011111 j
b0011011111 k
#229000
0:
#229500
1:
b000 h
1c
b100000 i
b11100000 j
b0011100000 k
1g
b00000100 \
b00000100 ]
b00000100 b
b00000100 @
#230000
0:
#230500
1:
b001 h
0c
b100001 i
b11100001 j
b0011100001 k
0g
#231000
0:
#231500
1:
b010 h
b100010 i
b11100010 j
b0011100010 k
#232000
0:
#232500
1:
b011 h
b100011 i
b11100011 j
b0011100011 k
#233000
0:
#233500
1:
b100 h
b100100 i
b11100100 j
b0011100100 k
#234000
0:
#234500
1:
b101 h
b100101 i
b11100101 j
b0011100101 k
#235000
0:
#235500
1:
b110 h
b100110 i
b11100110 j
b0011100110 k
#236000
0:
#236500
1:
b111 h
b100111 i
b11100111 j
b0011100111 k
#237000
0:
#237500
1:
b000 h
1c
b101000 i
b11101000 j
b0011101000 k
1g
b00000101 \
b00000101 ]
b00000101 b
b00000101 @
#238000
0:
#238500
1:
b001 h
0c
b101001 i
b11101001 j
b0011101001 k
0g
#239000
0:
#239500
1:
b010 h
b101010 i
b11101010 j
b0011101010 k
#240000
0:
#240500
1:
b011 h
b101011 i
b11101011 j
b0011101011 k
#241000
0:
#241500
1:
b100 h
b101100 i
b11101100 j
b0011101100 k
#242000
0:
